{
    "PROXY_REFRESH_TIME_IN_MINUTES":5,
    "CONFIG_REFRESH_TIME_IN_MINUTES":5,
    "CLEAR_BANNED_PROXIES": false,
    "HTTPS_REQUEST_TIMEOUT": 20,
    "FAILURE_COUNT_LIMIT": 15,
    "REQUESTS_LIMIT":200,
    "REINITIALIZE_COUNT_LIMIT": 15,
    "HTTPS_REQUEST_FAILURE_COUNT": 20,
    "PRODUCER_PAGE_LIMIT":400,
    "URLS_TO_GET_ADS": {
        "prodaja-stan":"https://www.halooglasi.com/nekretnine/prodaja-stanova",
        "prodaja-kuca":"https://www.halooglasi.com/nekretnine/prodaja-kuca",
        "izdavanje-stan":"https://www.halooglasi.com/nekretnine/izdavanje-stanova",
        "izdavanje-kuca":"https://www.halooglasi.com/nekretnine/izdavanje-kuca"
    },
    "CURRENT_PAGE": 0,
    "CURRENT_AD_BASE_URL_KEY": "prodaja-stan",
    "SHOULD_STOP": false,
    "SHOULD_STOP_PRODUCER": {
        "0": false,
        "1": false,
        "2": true,
        "3": true,
        "4": true,
        "5": true,
        "6": true
    },
    "SHOULD_STOP_CONSUMER": {
        "0": false,
        "1": false,
        "2": true,
        "3": true,
        "4": true,
        "5": true,
        "6": true,
        "7": true,
        "8": true,
        "9": true,
        "10": true,
        "11": true,
        "12": true,
        "13": true,
        "14": true,
        "15": true,
        "16": true,
        "17": true,
        "18": true,
        "19": true,
        "20": true,
        "21": true,
        "22": true,
        "23": true
    },
    "NUMBER_OF_PRODUCERS": 3,
    "NUMBER_OF_CONSUMERS": 6,
    "CONSUMER_SLEEP_TIME_IN_MINUTES": 2
}